Lab3/fir.vcd
$date
   Wed Oct 25 08:30:29 2023
$end
$version
  2022.1
$end
$timescale
  1ps
$end
$scope module fir_tb $end
$var wire 1 ! awready $end
$var wire 1 " wready $end
$var reg 1 # awvalid $end
$var reg 12 $ awaddr [11:0] $end
$var reg 1 % wvalid $end
$var reg 32 & wdata [31:0] $end
$var wire 1 ' arready $end
$var reg 1 ( rready $end
$var reg 1 ) arvalid $end
$var reg 12 * araddr [11:0] $end
$var wire 1 + rvalid $end
$var wire 32 , rdata [31:0] $end
$var reg 1 - ss_tvalid $end
$var reg 32 . ss_tdata [31:0] $end
$var reg 1 / ss_tlast $end
$var wire 1 0 ss_tready $end
$var reg 1 1 sm_tready $end
$var wire 1 2 sm_tvalid $end
$var wire 32 3 sm_tdata [31:0] $end
$var wire 1 4 sm_tlast $end
$var reg 1 5 axis_clk $end
$var reg 1 6 axis_rst_n $end
$var wire 4 7 tap_WE [3:0] $end
$var wire 1 8 tap_EN $end
$var wire 32 9 tap_Di [31:0] $end
$var wire 12 : tap_A [11:0] $end
$var wire 32 ; tap_Do [31:0] $end
$var wire 32 < tap_Do_out [31:0] $end
$var wire 4 = data_WE [3:0] $end
$var wire 1 > data_EN $end
$var wire 32 ? data_Di [31:0] $end
$var wire 12 @ data_A [11:0] $end
$var wire 32 A data_Do [31:0] $end
$var wire 32 B data_Do_out [31:0] $end
$var reg 1 C error_coef $end
$var reg 32 D data_length [31:0] $end
$var integer 32 E Din [31:0] $end
$var integer 32 F golden [31:0] $end
$var integer 32 G input_data [31:0] $end
$var integer 32 H golden_data [31:0] $end
$var integer 32 I m [31:0] $end
$var integer 32 J i [31:0] $end
$var integer 32 K k [31:0] $end
$var reg 1 L error $end
$var integer 32 M timeout [31:0] $end
$scope module fir_DUT $end
$var wire 1 ! awready $end
$var wire 1 " wready $end
$var wire 1 N awvalid $end
$var wire 12 O awaddr [11:0] $end
$var wire 1 P wvalid $end
$var wire 32 Q wdata [31:0] $end
$var wire 1 ' arready $end
$var wire 1 R rready $end
$var wire 1 S arvalid $end
$var wire 12 T araddr [11:0] $end
$var wire 1 + rvalid $end
$var wire 32 , rdata [31:0] $end
$var wire 1 U ss_tvalid $end
$var wire 32 V ss_tdata [31:0] $end
$var wire 1 W ss_tlast $end
$var wire 1 0 ss_tready $end
$var wire 1 X sm_tready $end
$var wire 1 2 sm_tvalid $end
$var wire 32 3 sm_tdata [31:0] $end
$var wire 1 4 sm_tlast $end
$var wire 4 7 tap_WE [3:0] $end
$var wire 1 8 tap_EN $end
$var wire 32 9 tap_Di [31:0] $end
$var wire 12 : tap_A [11:0] $end
$var wire 32 ; tap_Do [31:0] $end
$var reg 32 Y tap_Do_out [31:0] $end
$var wire 4 = data_WE [3:0] $end
$var wire 1 > data_EN $end
$var wire 32 ? data_Di [31:0] $end
$var wire 12 @ data_A [11:0] $end
$var wire 32 A data_Do [31:0] $end
$var reg 32 Z data_Do_out [31:0] $end
$var wire 1 [ axis_clk $end
$var wire 1 \ axis_rst_n $end
$var reg 1 ] awready_temp $end
$var reg 1 ^ wready_temp $end
$var reg 1 _ arready_temp $end
$var reg 1 ` rvalid_temp $end
$var reg 32 a rdata_temp [31:0] $end
$var reg 1 b ss_tready_temp $end
$var reg 1 c sm_tvalid_temp $end
$var reg 1 d sm_tlast_temp $end
$var reg 32 e sm_tdata_temp [31:0] $end
$var wire 32 f Y [31:0] $end
$var reg 32 g Y_temp [31:0] $end
$var reg 4 h tap_WE_temp [3:0] $end
$var reg 1 i tap_EN_temp $end
$var reg 32 j tap_Di_temp [31:0] $end
$var reg 12 k tap_A_temp [11:0] $end
$var reg 4 l data_WE_temp [3:0] $end
$var reg 1 m data_EN_temp $end
$var reg 32 n data_Di_temp [31:0] $end
$var reg 12 o data_A_temp [11:0] $end
$var reg 1 p AP_START $end
$var reg 1 q AP_IDLE $end
$var reg 1 r AP_DONE $end
$var reg 2 s Read_Address [1:0] $end
$var reg 4 t tap_count [3:0] $end
$var reg 4 u data_count [3:0] $end
$var reg 3 v FIR_STATE [2:0] $end
$var reg 3 w FIR_Next_STATE [2:0] $end
$var reg 1 x Write_and_WriteAddress_STATE $end
$var reg 3 y Write_and_WriteAddress_Next_STATE [2:0] $end
$var reg 1 z Read_and_ReadAddress_STATE $end
$var reg 3 { Read_and_ReadAddress_Next_STATE [2:0] $end
$var reg 2 | Write_Address [1:0] $end
$var reg 32 } data_length [31:0] $end
$var reg 2 ~ Write_or_Read_Tap [1:0] $end
$var reg 4 !! count_t [3:0] $end
$var reg 32 "! count_d [31:0] $end
$var reg 2 #! Last [1:0] $end
$var reg 1 $! Resetn_fir $end
$var wire 1 %! Done_fir $end
$scope module Kernel $end
$var wire 32 Z X [31:0] $end
$var wire 32 Y tap [31:0] $end
$var wire 1 [ CLK $end
$var wire 1 &! Resetn $end
$var reg 32 '! Y [31:0] $end
$var wire 1 %! Done $end
$var reg 4 (! Done_count [3:0] $end
$upscope $end
$upscope $end
$scope module tap_RAM $end
$var wire 1 )! CLK $end
$var wire 4 7 WE [3:0] $end
$var wire 1 8 EN $end
$var wire 32 9 Di [31:0] $end
$var wire 32 ; Do [31:0] $end
$var wire 12 : A [11:0] $end
$var reg 12 *! r_A [11:0] $end
$upscope $end
$scope module data_RAM $end
$var wire 1 +! CLK $end
$var wire 4 = WE [3:0] $end
$var wire 1 > EN $end
$var wire 32 ? Di [31:0] $end
$var wire 32 A Do [31:0] $end
$var wire 12 @ A [11:0] $end
$var reg 12 ,! r_A [11:0] $end
$upscope $end
$scope task config_write $end
$var reg 12 -! addr [11:0] $end
$var reg 32 .! data [31:0] $end
$upscope $end
$scope task config_read_check $end
$var reg 12 /! addr [11:0] $end
$var reg 32 0! exp_data [31:0] $end
$var reg 32 1! mask [31:0] $end
$upscope $end
$scope task ss $end
$var reg 32 2! in1 [31:0] $end
$upscope $end
$scope task sm $end
$var reg 32 3! in2 [31:0] $end
$var reg 32 4! pcnt [31:0] $end
$upscope $end
$upscope $end
$enddefinitions $end
#0
$dumpvars
1!
bx !!
0"
b1 "!
0#
b0 #!
bx $
0$!
0%
0%!
bx &
0&!
1'
b0 '!
x(
b1 (!
x)
0)!
bx *
bx *!
0+
0+!
bx ,
bx ,!
0-
b10000 -!
bx .
b1001011000 .!
0/
bx /!
00
bx 0!
11
bx 1!
02
bx 2!
bx 3
bx 3!
04
bx 4!
05
06
b0 7
08
bx 9
b0 :
b0 ;
b0 <
b0 =
0>
bx ?
b0 @
b0 A
b0 B
0C
b1001011000 D
b11111111111111111011000111100000 E
b11111111111111111011000111100001 F
b1 G
b1 H
b1001011000 I
b0 J
bx K
0L
b11110100001001000000 M
0N
bx O
0P
bx Q
xR
xS
bx T
0U
bx V
0W
1X
b0 Y
b0 Z
0[
0\
1]
0^
1_
0`
bx a
0b
0c
0d
bx e
b0 f
b0 g
b0 h
0i
bx j
b0 k
b0 l
0m
bx n
b0 o
0p
1q
0r
b11 s
b0 t
b0 u
b0 v
b0 w
0x
b0 y
0z
b0x {
b11 |
b0 }
b0 ~
$end
#5000
1#
b0 #!
b10000 $
0$!
1%
b1001011000 &
b0 '!
b1 (!
1)!
b0 *!
1+!
b0 ,!
15
b0 ;
b0 A
b11110100001000111111 M
1N
b10000 O
1P
b1001011000 Q
1[
0b
0c
0d
b0 g
b0 l
0m
0p
1q
0r
b11 s
b0 t
b0 u
b0 v
0x
b1 y
0z
b11 |
b0 }
b0 ~
#10000
0)!
0+!
05
0[
#15000
0!
1"
0$!
b0 '!
b1 (!
1)!
b0 *!
1+!
b0 ,!
15
16
b11110100001000111110 M
b0 Y
b0 Z
1[
1\
0]
1^
0b
0c
0d
b0 g
0m
1q
0r
b0 v
1x
b0 y
xz
b0 {
b1 |
b1001011000 }
b0 ~
#20000
0)!
0+!
05
0[
#25000
1!
0"
0#
0$!
0%
b0 '!
b1 (!
1)!
b0 *!
1+!
b0 ,!
b100000 -!
b0 .!
15
b0 K
b11110100001000111101 M
0N
0P
1[
1]
0^
0b
0c
0d
b0 g
0m
1q
0r
b0 v
0x
b0 y
0z
b0x {
b0 ~
#30000
0)!
0+!
05
0[
#35000
1#
b100000 $
0$!
1%
b0 &
b0 '!
b1 (!
1)!
b0 *!
1+!
b0 ,!
15
b11110100001000111100 M
1N
b100000 O
1P
b0 Q
1[
0b
0c
0d
b0 g
0m
1q
0r
b0 v
0x
b1 y
xz
b0 {
b0 ~
#40000
0)!
0+!
05
0[
#45000
0!
1"
0$!
b0 '!
b1 (!
1)!
b0 *!
1+!
b0 ,!
15
b1111 7
18
b0 9
bx ;
bx <
b11110100001000111011 M
bx Y
1[
0]
1^
0b
0c
0d
b0 g
b1111 h
1i
b0 j
0m
1q
0r
b0 v
1x
b0 y
0z
b0x {
b10 |
b10 ~
#50000
0)!
0+!
05
0[
#55000
1!
0"
0#
0$!
0%
b0 '!
b1 (!
1)!
b0 *!
1+!
b0 ,!
b100100 -!
b11111111111111111111111111110110 .!
15
b0 7
08
b100 :
b0 ;
b0 <
b1 K
b11110100001000111010 M
0N
0P
b0 Y
1[
1]
0^
0b
0c
0d
b0 g
b0 h
0i
b100 k
0m
b0 o
1q
0r
b1 t
b0 v
0x
b0 y
xz
b0 {
b0 ~
#60000
0)!
0+!
05
0[
#65000
1#
b100100 $
0$!
1%
b11111111111111111111111111110110 &
b0 '!
b1 (!
1)!
b100 *!
1+!
b0 ,!
15
b0 ;
b11110100001000111001 M
1N
b100100 O
1P
b11111111111111111111111111110110 Q
1[
0b
0c
0d
b0 g
0m
1q
0r
b0 v
0x
b1 y
0z
b0x {
b0 ~
#70000
0)!
0+!
05
0[
#75000
0!
1"
0$!
b0 '!
b1 (!
1)!
b100 *!
1+!
b0 ,!
15
b1111 7
18
b11111111111111111111111111110110 9
bx ;
bx <
b11110100001000111000 M
bx Y
1[
0]
1^
0b
0c
0d
b0 g
b1111 h
1i
b11111111111111111111111111110110 j
0m
1q
0r
b0 v
1x
b0 y
xz
b0 {
b10 |
b10 ~
#80000
0)!
0+!
05
0[
#85000
1!
0"
0#
0$!
0%
b0 '!
b1 (!
1)!
b100 *!
1+!
b0 ,!
b101000 -!
b11111111111111111111111111110111 .!
15
b0 7
08
b1000 :
b0 ;
b0 <
b10 K
b11110100001000110111 M
0N
0P
b0 Y
1[
1]
0^
0b
0c
0d
b0 g
b0 h
0i
b1000 k
0m
b0 o
1q
0r
b10 t
b0 v
0x
b0 y
0z
b0x {
b0 ~
#90000
0)!
0+!
05
0[
#95000
1#
b101000 $
0$!
1%
b11111111111111111111111111110111 &
b0 '!
b1 (!
1)!
b1000 *!
1+!
b0 ,!
1-
b1 .
b1 2!
15
b0 ;
b11110100001000110110 M
1N
b101000 O
1P
b11111111111111111111111111110111 Q
1U
b1 V
1[
0b
0c
0d
b0 g
0m
1q
0r
b0 v
0x
b1 y
xz
b0 {
b0 ~
#100000
0)!
0+!
05
0[
#105000
0!
1"
0$!
b0 '!
b1 (!
1)!
b1000 *!
1+!
b0 ,!
15
b1111 7
18
b11111111111111111111111111110111 9
bx ;
bx <
b11110100001000110101 M
bx Y
1[
0]
1^
0b
0c
0d
b0 g
b1111 h
1i
b11111111111111111111111111110111 j
0m
1q
0r
b0 v
1x
b0 y
0z
b0x {
b10 |
b10 ~
#110000
0)!
0+!
05
0[
#115000
1!
0"
0#
0$!
0%
b0 '!
b1 (!
1)!
b1000 *!
1+!
b0 ,!
b101100 -!
b10111 .!
15
b0 7
08
b1100 :
b0 ;
b0 <
b11 K
b11110100001000110100 M
0N
0P
b0 Y
1[
1]
0^
0b
0c
0d
b0 g
b0 h
0i
b1100 k
0m
b0 o
1q
0r
b11 t
b0 v
0x
b0 y
xz
b0 {
b0 ~
#120000
0)!
0+!
05
0[
#125000
1#
b101100 $
0$!
1%
b10111 &
b0 '!
b1 (!
1)!
b1100 *!
1+!
b0 ,!
15
b0 ;
b11110100001000110011 M
1N
b101100 O
1P
b10111 Q
1[
0b
0c
0d
b0 g
0m
1q
0r
b0 v
0x
b1 y
0z
b0x {
b0 ~
#130000
0)!
0+!
05
0[
#135000
0!
1"
0$!
b0 '!
b1 (!
1)!
b1100 *!
1+!
b0 ,!
15
b1111 7
18
b10111 9
bx ;
bx <
b11110100001000110010 M
bx Y
1[
0]
1^
0b
0c
0d
b0 g
b1111 h
1i
b10111 j
0m
1q
0r
b0 v
1x
b0 y
xz
b0 {
b10 |
b10 ~
#140000
0)!
0+!
05
0[
#145000
1!
0"
0#
0$!
0%
b0 '!
b1 (!
1)!
b1100 *!
1+!
b0 ,!
b110000 -!
b111000 .!
15
b0 7
08
b10000 :
b0 ;
b0 <
b100 K
b11110100001000110001 M
0N
0P
b0 Y
1[
1]
0^
0b
0c
0d
b0 g
b0 h
0i
b10000 k
0m
b0 o
1q
0r
b100 t
b0 v
0x
b0 y
0z
b0x {
b0 ~
#150000
0)!
0+!
05
0[
#155000
1#
b110000 $
0$!
1%
b111000 &
b0 '!
b1 (!
1)!
b10000 *!
1+!
b0 ,!
15
b0 ;
b11110100001000110000 M
1N
b110000 O
1P
b111000 Q
1[
0b
0c
0d
b0 g
0m
1q
0r
b0 v
0x
b1 y
xz
b0 {
b0 ~
#160000
0)!
0+!
05
0[
#165000
0!
1"
0$!
b0 '!
b1 (!
1)!
b10000 *!
1+!
b0 ,!
15
b1111 7
18
b111000 9
bx ;
bx <
b11110100001000101111 M
bx Y
1[
0]
1^
0b
0c
0d
b0 g
b1111 h
1i
b111000 j
0m
1q
0r
b0 v
1x
b0 y
0z
b0x {
b10 |
b10 ~
#170000
0)!
0+!
05
0[
#175000
1!
0"
0#
0$!
0%
b0 '!
b1 (!
1)!
b10000 *!
1+!
b0 ,!
b110100 -!
b111111 .!
15
b0 7
08
b10100 :
b0 ;
b0 <
b101 K
b11110100001000101110 M
0N
0P
b0 Y
1[
1]
0^
0b
0c
0d
b0 g
b0 h
0i
b10100 k
0m
b0 o
1q
0r
b101 t
b0 v
0x
b0 y
xz
b0 {
b0 ~
#180000
0)!
0+!
05
0[
#185000
1#
b110100 $
0$!
1%
b111111 &
b0 '!
b1 (!
1)!
b10100 *!
1+!
b0 ,!
15
b0 ;
b11110100001000101101 M
1N
b110100 O
1P
b111111 Q
1[
0b
0c
0d
b0 g
0m
1q
0r
b0 v
0x
b1 y
0z
b0x {
b0 ~
#190000
0)!
0+!
05
0[
#195000
0!
1"
0$!
b0 '!
b1 (!
1)!
b10100 *!
1+!
b0 ,!
15
b1111 7
18
b111111 9
bx ;
bx <
b11110100001000101100 M
bx Y
1[
0]
1^
0b
0c
0d
b0 g
b1111 h
1i
b111111 j
0m
1q
0r
b0 v
1x
b0 y
xz
b0 {
b10 |
b10 ~
#200000
0)!
0+!
05
0[
#205000
1!
0"
0#
0$!
0%
b0 '!
b1 (!
1)!
b10100 *!
1+!
b0 ,!
b111000 -!
b111000 .!
15
b0 7
08
b11000 :
b0 ;
b0 <
b110 K
b11110100001000101011 M
0N
0P
b0 Y
1[
1]
0^
0b
0c
0d
b0 g
b0 h
0i
b11000 k
0m
b0 o
1q
0r
b110 t
b0 v
0x
b0 y
0z
b0x {
b0 ~
#210000
0)!
0+!
05
0[
#215000
1#
b111000 $
0$!
1%
b111000 &
b0 '!
b1 (!
1)!
b11000 *!
1+!
b0 ,!
15
b0 ;
b11110100001000101010 M
1N
b111000 O
1P
b111000 Q
1[
0b
0c
0d
b0 g
0m
1q
0r
b0 v
0x
b1 y
xz
b0 {
b0 ~
#220000
0)!
0+!
05
0[
#225000
0!
1"
0$!
b0 '!
b1 (!
1)!
b11000 *!
1+!
b0 ,!
15
b1111 7
18
b111000 9
bx ;
bx <
b11110100001000101001 M
bx Y
1[
0]
1^
0b
0c
0d
b0 g
b1111 h
1i
b111000 j
0m
1q
0r
b0 v
1x
b0 y
0z
b0x {
b10 |
b10 ~
#230000
0)!
0+!
05
0[
#235000
1!
0"
0#
0$!
0%
b0 '!
b1 (!
1)!
b11000 *!
1+!
b0 ,!
b111100 -!
b10111 .!
15
b0 7
08
b11100 :
b0 ;
b0 <
b111 K
b11110100001000101000 M
0N
0P
b0 Y
1[
1]
0^
0b
0c
0d
b0 g
b0 h
0i
b11100 k
0m
b0 o
1q
0r
b111 t
b0 v
0x
b0 y
xz
b0 {
b0 ~
#240000
0)!
0+!
05
0[
#245000
1#
b111100 $
0$!
1%
b10111 &
b0 '!
b1 (!
1)!
b11100 *!
1+!
b0 ,!
15
b0 ;
b11110100001000100111 M
1N
b111100 O
1P
b10111 Q
1[
0b
0c
0d
b0 g
0m
1q
0r
b0 v
0x
b1 y
0z
b0x {
b0 ~
#250000
0)!
0+!
05
0[
#255000
0!
1"
0$!
b0 '!
b1 (!
1)!
b11100 *!
1+!
b0 ,!
15
b1111 7
18
b10111 9
bx ;
bx <
b11110100001000100110 M
bx Y
1[
0]
1^
0b
0c
0d
b0 g
b1111 h
1i
b10111 j
0m
1q
0r
b0 v
1x
b0 y
xz
b0 {
b10 |
b10 ~
#260000
0)!
0+!
05
0[
#265000
1!
0"
0#
0$!
0%
b0 '!
b1 (!
1)!
b11100 *!
1+!
b0 ,!
b1000000 -!
b11111111111111111111111111110111 .!
15
b0 7
08
b100000 :
b0 ;
b0 <
b1000 K
b11110100001000100101 M
0N
0P
b0 Y
1[
1]
0^
0b
0c
0d
b0 g
b0 h
0i
b100000 k
0m
b0 o
1q
0r
b1000 t
b0 v
0x
b0 y
0z
b0x {
b0 ~
#270000
0)!
0+!
05
0[
#275000
1#
b1000000 $
0$!
1%
b11111111111111111111111111110111 &
b0 '!
b1 (!
1)!
b100000 *!
1+!
b0 ,!
15
b0 ;
b11110100001000100100 M
1N
b1000000 O
1P
b11111111111111111111111111110111 Q
1[
0b
0c
0d
b0 g
0m
1q
0r
b0 v
0x
b1 y
xz
b0 {
b0 ~
#280000
0)!
0+!
05
0[
#285000
0!
1"
0$!
b0 '!
b1 (!
1)!
b100000 *!
1+!
b0 ,!
15
b1111 7
18
b11111111111111111111111111110111 9
bx ;
bx <
b11110100001000100011 M
bx Y
1[
0]
1^
0b
0c
0d
b0 g
b1111 h
1i
b11111111111111111111111111110111 j
0m
1q
0r
b0 v
1x
b0 y
0z
b0x {
b10 |
b10 ~
#290000
0)!
0+!
05
0[
#295000
1!
0"
0#
0$!
0%
b0 '!
b1 (!
1)!
b100000 *!
1+!
b0 ,!
b1000100 -!
b11111111111111111111111111110110 .!
15
b0 7
08
b100100 :
b0 ;
b0 <
b1001 K
b11110100001000100010 M
0N
0P
b0 Y
1[
1]
0^
0b
0c
0d
b0 g
b0 h
0i
b100100 k
0m
b0 o
1q
0r
b1001 t
b0 v
0x
b0 y
xz
b0 {
b0 ~
#300000
0)!
0+!
05
0[
#305000
1#
b1000100 $
0$!
1%
b11111111111111111111111111110110 &
b0 '!
b1 (!
1)!
b100100 *!
1+!
b0 ,!
15
b0 ;
b11110100001000100001 M
1N
b1000100 O
1P
b11111111111111111111111111110110 Q
1[
0b
0c
0d
b0 g
0m
1q
0r
b0 v
0x
b1 y
0z
b0x {
b0 ~
#310000
0)!
0+!
05
0[
#315000
0!
1"
0$!
b0 '!
b1 (!
1)!
b100100 *!
1+!
b0 ,!
15
b1111 7
18
b11111111111111111111111111110110 9
bx ;
bx <
b11110100001000100000 M
bx Y
1[
0]
1^
0b
0c
0d
b0 g
b1111 h
1i
b11111111111111111111111111110110 j
0m
1q
0r
b0 v
1x
b0 y
xz
b0 {
b10 |
b10 ~
#320000
0)!
0+!
05
0[
#325000
1!
0"
0#
0$!
0%
b0 '!
b1 (!
1)!
b100100 *!
1+!
b0 ,!
b1001000 -!
b0 .!
15
b0 7
08
b101000 :
b0 ;
b0 <
b1010 K
b11110100001000011111 M
0N
0P
b0 Y
1[
1]
0^
0b
0c
0d
b0 g
b0 h
0i
b101000 k
0m
b0 o
1q
0r
b1010 t
b0 v
0x
b0 y
0z
b0x {
b0 ~
#330000
0)!
0+!
05
0[
#335000
1#
b1001000 $
0$!
1%
b0 &
b0 '!
b1 (!
1)!
b101000 *!
1+!
b0 ,!
15
b0 ;
b11110100001000011110 M
1N
b1001000 O
1P
b0 Q
1[
0b
0c
0d
b0 g
0m
1q
0r
b0 v
0x
b1 y
xz
b0 {
b0 ~
#340000
0)!
0+!
05
0[
#345000
0!
1"
0$!
b0 '!
b1 (!
1)!
b101000 *!
1+!
b0 ,!
15
b1111 7
18
b0 9
bx ;
bx <
b11110100001000011101 M
bx Y
1[
0]
1^
0b
0c
0d
b0 g
b1111 h
1i
b0 j
0m
1q
0r
b0 v
1x
b0 y
0z
b0x {
b10 |
b10 ~
#350000
0)!
0+!
05
0[
#355000
1!
0"
0#
0$!
0%
b0 '!
1(
b1 (!
1)
1)!
b100000 *
b101000 *!
1+!
b0 ,!
b100000 /!
b0 0!
b11111111111111111111111111111111 1!
15
b0 7
08
b0 :
b0 ;
b0 <
b0 K
b11110100001000011100 M
0N
0P
1R
1S
b100000 T
b0 Y
1[
1]
0^
0b
0c
0d
b0 g
b0 h
0i
b0 k
0m
b0 o
1q
0r
b0 t
b0 v
b0 w
0x
b0 y
xz
b0 {
b0 ~
#360000
0)!
0+!
05
0[
#365000
0$!
b0 '!
b1 (!
1)!
b0 *!
1+!
b0 ,!
15
b0 ;
b11110100001000011011 M
1[
0b
0c
0d
b0 g
0m
1q
0r
b10 s
b0 v
0x
0z
b1 {
b0 ~
#370000
0)!
0+!
05
0[
#375000
0$!
0'
b0 '!
b1 (!
1)!
b0 *!
1+
1+!
b0 ,
b0 ,!
15
18
b0 ;
b11110100001000011010 M
1[
0_
1`
b0 a
0b
0c
0d
b0 g
b0 h
1i
0m
1q
0r
b10 s
b0 v
b0 w
0x
1z
b0 {
b1 ~
#380000
0)!
0+!
05
0[
#385000
0$!
1'
b0 '!
1(
b1 (!
1)
1)!
b100100 *
b0 *!
0+
1+!
b0 ,!
b100100 /!
b11111111111111111111111111110110 0!
b11111111111111111111111111111111 1!
15
08
b100 :
b0 ;
b1 K
b11110100001000011001 M
1S
b100100 T
1[
1_
0`
0b
0c
0d
b0 g
b0 h
0i
b100 k
0m
b0 o
1q
0r
b1 t
b0 v
b0 w
0x
0z
b1 {
b0 ~
#390000
0)!
0+!
05
0[
#395000
0$!
0'
b0 '!
b1 (!
1)!
b100 *!
1+
1+!
b11111111111111111111111111110110 ,
b0 ,!
15
18
b11111111111111111111111111110110 ;
b11111111111111111111111111110110 <
b11110100001000011000 M
b11111111111111111111111111110110 Y
1[
0_
1`
b11111111111111111111111111110110 a
0b
0c
0d
b0 g
b0 h
1i
0m
1q
0r
b10 s
b0 v
b0 w
0x
1z
b0 {
b1 ~
#400000
0)!
0+!
05
0[
#405000
0$!
1'
b0 '!
1(
b1 (!
1)
1)!
b101000 *
b100 *!
0+
1+!
b0 ,!
b101000 /!
b11111111111111111111111111110111 0!
b11111111111111111111111111111111 1!
15
08
b1000 :
b0 ;
b0 <
b10 K
b11110100001000010111 M
1S
b101000 T
b0 Y
1[
1_
0`
0b
0c
0d
b0 g
b0 h
0i
b1000 k
0m
b0 o
1q
0r
b10 t
b0 v
b0 w
0x
0z
b1 {
b0 ~
#410000
0)!
0+!
05
0[
#415000
0$!
0'
b0 '!
b1 (!
1)!
b1000 *!
1+
1+!
b11111111111111111111111111110111 ,
b0 ,!
15
18
b11111111111111111111111111110111 ;
b11111111111111111111111111110111 <
b11110100001000010110 M
b11111111111111111111111111110111 Y
1[
0_
1`
b11111111111111111111111111110111 a
0b
0c
0d
b0 g
b0 h
1i
0m
1q
0r
b10 s
b0 v
b0 w
0x
1z
b0 {
b1 ~
#420000
0)!
0+!
05
0[
#425000
0$!
1'
b0 '!
1(
b1 (!
1)
1)!
b101100 *
b1000 *!
0+
1+!
b0 ,!
b101100 /!
b10111 0!
b11111111111111111111111111111111 1!
15
08
b1100 :
b0 ;
b0 <
b11 K
b11110100001000010101 M
1S
b101100 T
b0 Y
1[
1_
0`
0b
0c
0d
b0 g
b0 h
0i
b1100 k
0m
b0 o
1q
0r
b11 t
b0 v
b0 w
0x
0z
b1 {
b0 ~
#430000
0)!
0+!
05
0[
#435000
0$!
0'
b0 '!
b1 (!
1)!
b1100 *!
1+
1+!
b10111 ,
b0 ,!
15
18
b10111 ;
b10111 <
b11110100001000010100 M
b10111 Y
1[
0_
1`
b10111 a
0b
0c
0d
b0 g
b0 h
1i
0m
1q
0r
b10 s
b0 v
b0 w
0x
1z
b0 {
b1 ~
#440000
0)!
0+!
05
0[
#445000
0$!
1'
b0 '!
1(
b1 (!
1)
1)!
b110000 *
b1100 *!
0+
1+!
b0 ,!
b110000 /!
b111000 0!
b11111111111111111111111111111111 1!
15
08
b10000 :
b0 ;
b0 <
b100 K
b11110100001000010011 M
1S
b110000 T
b0 Y
1[
1_
0`
0b
0c
0d
b0 g
b0 h
0i
b10000 k
0m
b0 o
1q
0r
b100 t
b0 v
b0 w
0x
0z
b1 {
b0 ~
#450000
0)!
0+!
05
0[
#455000
0$!
0'
b0 '!
b1 (!
1)!
b10000 *!
1+
1+!
b111000 ,
b0 ,!
15
18
b111000 ;
b111000 <
b11110100001000010010 M
b111000 Y
1[
0_
1`
b111000 a
0b
0c
0d
b0 g
b0 h
1i
0m
1q
0r
b10 s
b0 v
b0 w
0x
1z
b0 {
b1 ~
#460000
0)!
0+!
05
0[
#465000
0$!
1'
b0 '!
1(
b1 (!
1)
1)!
b110100 *
b10000 *!
0+
1+!
b0 ,!
b110100 /!
b111111 0!
b11111111111111111111111111111111 1!
15
08
b10100 :
b0 ;
b0 <
b101 K
b11110100001000010001 M
1S
b110100 T
b0 Y
1[
1_
0`
0b
0c
0d
b0 g
b0 h
0i
b10100 k
0m
b0 o
1q
0r
b101 t
b0 v
b0 w
0x
0z
b1 {
b0 ~
#470000
0)!
0+!
05
0[
#475000
0$!
0'
b0 '!
b1 (!
1)!
b10100 *!
1+
1+!
b111111 ,
b0 ,!
15
18
b111111 ;
b111111 <
b11110100001000010000 M
b111111 Y
1[
0_
1`
b111111 a
0b
0c
0d
b0 g
b0 h
1i
0m
1q
0r
b10 s
b0 v
b0 w
0x
1z
b0 {
b1 ~
#480000
0)!
0+!
05
0[
#485000
0$!
1'
b0 '!
1(
b1 (!
1)
1)!
b111000 *
b10100 *!
0+
1+!
b0 ,!
b111000 /!
b111000 0!
b11111111111111111111111111111111 1!
15
08
b11000 :
b0 ;
b0 <
b110 K
b11110100001000001111 M
1S
b111000 T
b0 Y
1[
1_
0`
0b
0c
0d
b0 g
b0 h
0i
b11000 k
0m
b0 o
1q
0r
b110 t
b0 v
b0 w
0x
0z
b1 {
b0 ~
#490000
0)!
0+!
05
0[
#495000
0$!
0'
b0 '!
b1 (!
1)!
b11000 *!
1+
1+!
b111000 ,
b0 ,!
15
18
b111000 ;
b111000 <
b11110100001000001110 M
b111000 Y
1[
0_
1`
b111000 a
0b
0c
0d
b0 g
b0 h
1i
0m
1q
0r
b10 s
b0 v
b0 w
0x
1z
b0 {
b1 ~
#500000
0)!
0+!
05
0[
#505000
0$!
1'
b0 '!
1(
b1 (!
1)
1)!
b111100 *
b11000 *!
0+
1+!
b0 ,!
b111100 /!
b10111 0!
b11111111111111111111111111111111 1!
15
08
b11100 :
b0 ;
b0 <
b111 K
b11110100001000001101 M
1S
b111100 T
b0 Y
1[
1_
0`
0b
0c
0d
b0 g
b0 h
0i
b11100 k
0m
b0 o
1q
0r
b111 t
b0 v
b0 w
0x
0z
b1 {
b0 ~
#510000
0)!
0+!
05
0[
#515000
0$!
0'
b0 '!
b1 (!
1)!
b11100 *!
1+
1+!
b10111 ,
b0 ,!
15
18
b10111 ;
b10111 <
b11110100001000001100 M
b10111 Y
1[
0_
1`
b10111 a
0b
0c
0d
b0 g
b0 h
1i
0m
1q
0r
b10 s
b0 v
b0 w
0x
1z
b0 {
b1 ~
#520000
0)!
0+!
05
0[
#525000
0$!
1'
b0 '!
1(
b1 (!
1)
1)!
b1000000 *
b11100 *!
0+
1+!
b0 ,!
b1000000 /!
b11111111111111111111111111110111 0!
b11111111111111111111111111111111 1!
15
08
b100000 :
b0 ;
b0 <
b1000 K
b11110100001000001011 M
1S
b1000000 T
b0 Y
1[
1_
0`
0b
0c
0d
b0 g
b0 h
0i
b100000 k
0m
b0 o
1q
0r
b1000 t
b0 v
b0 w
0x
0z
b1 {
b0 ~
#530000
0)!
0+!
05
0[
#535000
0$!
0'
b0 '!
b1 (!
1)!
b100000 *!
1+
1+!
b11111111111111111111111111110111 ,
b0 ,!
15
18
b11111111111111111111111111110111 ;
b11111111111111111111111111110111 <
b11110100001000001010 M
b11111111111111111111111111110111 Y
1[
0_
1`
b11111111111111111111111111110111 a
0b
0c
0d
b0 g
b0 h
1i
0m
1q
0r
b10 s
b0 v
b0 w
0x
1z
b0 {
b1 ~
#540000
0)!
0+!
05
0[
#545000
0$!
1'
b0 '!
1(
b1 (!
1)
1)!
b1000100 *
b100000 *!
0+
1+!
b0 ,!
b1000100 /!
b11111111111111111111111111110110 0!
b11111111111111111111111111111111 1!
15
08
b100100 :
b0 ;
b0 <
b1001 K
b11110100001000001001 M
1S
b1000100 T
b0 Y
1[
1_
0`
0b
0c
0d
b0 g
b0 h
0i
b100100 k
0m
b0 o
1q
0r
b1001 t
b0 v
b0 w
0x
0z
b1 {
b0 ~
#550000
0)!
0+!
05
0[
#555000
0$!
0'
b0 '!
b1 (!
1)!
b100100 *!
1+
1+!
b11111111111111111111111111110110 ,
b0 ,!
15
18
b11111111111111111111111111110110 ;
b11111111111111111111111111110110 <
b11110100001000001000 M
b11111111111111111111111111110110 Y
1[
0_
1`
b11111111111111111111111111110110 a
0b
0c
0d
b0 g
b0 h
1i
0m
1q
0r
b10 s
b0 v
b0 w
0x
1z
b0 {
b1 ~
